…
``` r
# FILL THIS IN! HOW CAN PEOPLE INSTALL YOUR DEV PACKAGE?
```

## Example

This is a basic example which shows you how to solve a common problem:

``` r
library(CalcRelAb)
library(phyloseq)
data("esophagus")
calc_relative_abunance(esophagus)
#> # A tibble: 174 × 4
#>    OTU     Sample Abundance Relative_Abundance
#>    <chr>   <chr>      <dbl>              <dbl>
#>  1 59_2_6  D            124             0.566 
#>  2 59_2_6  B             52             0.256 
#>  3 59_8_22 B             50             0.246 
#>  4 59_5_19 C             42             0.165 
#>  5 59_7_6  C             41             0.161 
#>  6 59_2_6  C             41             0.161 
#>  7 59_7_6  B             37             0.182 
#>  8 59_8_22 C             19             0.0745
#>  9 59_7_6  D             18             0.0822
#> 10 59_5_19 B             14             0.0690
#> # ℹ 164 more rows
```
…
